<?xml version="1.0" encoding="UTF-8"?>
<svg width="24px" height="24px" viewBox="0 0 24 24" version="1.1" xmlns="http://www.w3.org/2000/svg" xmlns:xlink="http://www.w3.org/1999/xlink">
    <!-- Generator: Sketch 59.1 (86144) - https://sketch.com -->
    <title>调研项目</title>
    <desc>Created with Sketch.</desc>
    <g id="组件" stroke="none" stroke-width="1" fill="none" fill-rule="evenodd">
        <g id="调研项目">
            <g id="file-search">
                <g>
                    <rect id="矩形" fill="#000000" fill-rule="nonzero" opacity="0" x="0" y="0" width="24" height="24"></rect>
                    <path d="M11,6 C6.581722,6 3,9.581722 3,14 C3,18.418278 6.581722,22 11,22 C15.418278,22 19,18.418278 19,14 L11,14 L11,6 Z" id="路径" stroke="#FFFFFF" stroke-width="1.5" stroke-linecap="round" stroke-linejoin="round"></path>
                    <path d="M14,11 C18.418278,11 22,7.418278 22,3 L14,3 L14,11 Z" id="形状" stroke-opacity="0.5" stroke="#FFFFFF" stroke-width="1.5" stroke-linecap="round" stroke-linejoin="round" transform="translate(18.000000, 7.000000) scale(1, -1) translate(-18.000000, -7.000000) "></path>
                </g>
            </g>
        </g>
    </g>
</svg>